vhdllab-client/src/main/images/hr/fer/zemris/vhdllab/applets/simulations/adder2.vcd
$date
  Fri Aug 11 16:45:35 2006
$end
$version
  GHDL v0
$end
$timescale
  1 fs
$end
$var reg 1 ! tb_a $end
$var reg 3 " tb_b[3:1] $end
$var reg 1 # tb_ci $end
$var reg 1 $ tb_s $end
$var reg 1 % tb_co $end
$scope module uut $end
$var reg 1 & a $end
$var reg 1 ' b $end
$var reg 1 ( ci $end
$var reg 1 ) s $end
$var reg 1 * co $end
$var reg 1 + xor_tmp $end
$var reg 4 , and_tmp[0:3] $end
$scope module x1 $end
$var reg 1 - a $end
$var reg 1 . b $end
$var reg 1 / y $end
$var reg 1 0 y_interni $end
$upscope $end
$scope module x2 $end
$var reg 1 1 a $end
$var reg 1 2 b $end
$var reg 1 3 y $end
$var reg 1 4 y_interni $end
$upscope $end
$scope module a1 $end
$var reg 1 5 a $end
$var reg 1 6 b $end
$var reg 1 7 y $end
$upscope $end
$scope module a2 $end
$var reg 1 8 a $end
$var reg 1 9 b $end
$var reg 1 : y $end
$upscope $end
$scope module a3 $end
$var reg 1 ; a $end
$var reg 1 < b $end
$var reg 1 = y $end
$upscope $end
$scope module o1 $end
$var reg 1 > a $end
$var reg 1 ? b $end
$var reg 1 @ y $end
$upscope $end
$scope module o2 $end
$var reg 1 A a $end
$var reg 1 B b $end
$var reg 1 C y $end
$upscope $end
$upscope $end
$enddefinitions $end
#0
Z!
b011 "
0#
U$
U%
0&
0'
0(
U)
U*
U+
bUUUU ,
0-
0.
X/
U0
U1
02
U3
U4
05
06
U7
08
09
Z:
0;
H<
U=
U>
U?
U@
UA
UB
UC
#10000000
U*
0+
b000U ,
0/
00
01
07
0:
0=
0>
0?
U@
0A
UC
#20000000
1$
0)
U*
b0000 ,
03
04
0@
0B
UC
#30000000
0%
0*
0C
#100000000
1#
1(
12
19
1<
#110000000
b101 "
1$
1)
13
14
0:
0=
#200000000
b111 "
0#
1'
0(
1.
02
16
09
1;
0<
#210000000
0$
0)
1+
1/
10
11
03
04
07
0:
0=
#220000000
1$
1)
13
14
#300000000
1#
1(
12
19
1<
#310000000
0$
0)
b0010 ,
03
04
0:
1=
1A
#320000000
1%
1*
1C
#400000000
1!
b100 "
0#
1&
0'
0(
1-
0.
02
15
06
18
09
0;
0<
#410000000
X$
1)
b0000 ,
13
14
07
0:
0=
0A
#420000000
0%
0*
0C
#500000000
1#
1(
12
19
1<
#510000000
0$
0)
b0100 ,
03
04
1:
0=
1?
#520000000
b0101 ,
1@
1B
#530000000
1%
1*
1C
#600000000
b111 "
0#
1'
0(
1.
02
16
09
1;
0<
#610000000
1$
1)
0+
b1001 ,
0/
00
01
13
14
17
0:
0=
1>
0?
#620000000
0$
0)
03
04
1@
#700000000
1#
1(
12
19
1<
#710000000
1$
1)
b1111 ,
13
14
1:
1=
1?
1A
#720000000
1*
1@
1C
